Machine Learning Learning Lab 2
…
---

# Let's consider an example

Say we have a data set, `d`, with 100 observations (rows or data points)

Let's say we determine that _k_ is set to 10

```
## # A tibble: 100 × 3
##       id  var_a  var_b
##    <int>  <dbl>  <dbl>
##  1     1 0.0793 0.223 
##  2     2 0.547  0.847 
##  3     3 0.730  0.0361
##  4     4 0.494  0.238 
##  5     5 0.0872 0.124 
##  6     6 0.275  0.191 
##  7     7 0.336  0.222 
##  8     8 0.668  0.498 
##  9     9 0.636  0.678 
## 10    10 0.0804 0.267 
## # … with 90 more rows
```
…
