Machine Learning Learning Lab 2: Feature Engineering
…
- One of the most common and useful forms of resampling is *k*-folds cross validation
    - Here, some of the data is considered to be a part of the *training* set 
    - The remaining data is a part of the *testing* set

- How many sets (samples taken through resampling)?
    - This is determined by _k_, number of times the data is resampled
    - When _k_ is equivalent to the number of rows in the data, this is often called "Leave One Out Cross-Validation" (LOOCV)
---

# Let's consider an example

Say we have a data set, `d`, with 100 observations (rows or data points) with _k_ = 10.

```
## # A tibble: 100 × 3
##       id  var_a  var_b
##    <int>  <dbl>  <dbl>
##  1     1 0.375  0.0263
##  2     2 0.156  0.267 
##  3     3 0.204  0.172 
##  4     4 0.104  0.238 
##  5     5 0.0806 0.760 
##  6     6 0.539  0.426 
##  7     7 0.701  0.985 
##  8     8 0.237  0.406 
##  9     9 0.216  0.159 
## 10    10 0.865  0.0728
## # … with 90 more rows
```
…
