Machine Learning Learning Lab 4: Unsupervised Methods
…
# ASSISTments

- We will use a portion of the ASSISTment data from a [data mining
competition](https://sites.google.com/view/assistmentsdatamining/home?authuser=0), identifying groups/patterns in learners' interactions with ASSISTments
- [This paper](https://educationaldatamining.org/EDM2014/uploads/procs2014/short%20papers/276_EDM-2014-Short.pdf) provides helpful context; sidebar: ~60% accuracy predicting student STEM enrollment (in college)
    - Features for student affect and behavior within ASSISTments, including: **boredom**, **engaged concentration**, **confusion**, and other (9 total)
- Developed from a classroom observational measure, BROMP, to identify these and _synchronized_ log files

---

# ASSISTments

```
## # A tibble: 514 × 9
##    ave_carelessness ave_know ave_correct ave_res_bored ave_res_engcon
##               <dbl>    <dbl>       <dbl>         <dbl>          <dbl>
##  1           0.159    0.255        0.380         0.223          0.650
##  2           0.0942   0.192        0.413         0.261          0.639
##  3           0.111    0.251        0.5           0.273          0.647
##  4           0.126    0.230        0.445         0.243          0.659
##  5           0.0932   0.146        0.310         0.211          0.656
##  6           0.0899   0.151        0.328         0.221          0.658
##  7           0.0691   0.117        0.291         0.199          0.665
##  8           0.0443   0.0826       0.204         0.198          0.687
##  9           0.0690   0.109        0.294         0.196          0.688
## 10           0.0749   0.133        0.317         0.230          0.670
## # … with 504 more rows, and 4 more variables: ave_res_conf <dbl>,
## #   ave_res_frust <dbl>, ave_res_offtask <dbl>, ave_res_gaming <dbl>
```
…
